2   1  4
361 1008 648 2 3
 -1.000000000000000e+01  -1.000000000000000e+01
 -8.888888888888889e+00  -1.000000000000000e+01
 -7.777777777777779e+00  -1.000000000000000e+01
 -6.666666666666665e+00  -1.000000000000000e+01
 -5.555555555555555e+00  -1.000000000000000e+01
 -4.444444444444445e+00  -1.000000000000000e+01
 -3.333333333333332e+00  -1.000000000000000e+01
 -2.222222222222221e+00  -1.000000000000000e+01
 -1.111111111111111e+00  -1.000000000000000e+01
  0.000000000000000e+00  -1.000000000000000e+01
  1.111111111111111e+00  -1.000000000000000e+01
  2.222222222222223e+00  -1.000000000000000e+01
  3.333333333333335e+00  -1.000000000000000e+01
  4.444444444444445e+00  -1.000000000000000e+01
  5.555555555555557e+00  -1.000000000000000e+01
  6.666666666666668e+00  -1.000000000000000e+01
  7.777777777777779e+00  -1.000000000000000e+01
  8.888888888888889e+00  -1.000000000000000e+01
  1.000000000000000e+01  -1.000000000000000e+01
  1.000000000000000e+01  -8.888888888888889e+00
  1.000000000000000e+01  -7.777777777777779e+00
  1.000000000000000e+01  -6.666666666666665e+00
  1.000000000000000e+01  -5.555555555555555e+00
  1.000000000000000e+01  -4.444444444444445e+00
  1.000000000000000e+01  -3.333333333333332e+00
  1.000000000000000e+01  -2.222222222222221e+00
  1.000000000000000e+01  -1.111111111111111e+00
  1.000000000000000e+01   0.000000000000000e+00
  1.000000000000000e+01   1.111111111111111e+00
  1.000000000000000e+01   2.222222222222223e+00
  1.000000000000000e+01   3.333333333333335e+00
  1.000000000000000e+01   4.444444444444445e+00
  1.000000000000000e+01   5.555555555555557e+00
  1.000000000000000e+01   6.666666666666668e+00
  1.000000000000000e+01   7.777777777777779e+00
  1.000000000000000e+01   8.888888888888889e+00
  1.000000000000000e+01   1.000000000000000e+01
  8.888888888888889e+00   1.000000000000000e+01
  7.777777777777779e+00   1.000000000000000e+01
  6.666666666666665e+00   1.000000000000000e+01
  5.555555555555555e+00   1.000000000000000e+01
  4.444444444444445e+00   1.000000000000000e+01
  3.333333333333332e+00   1.000000000000000e+01
  2.222222222222221e+00   1.000000000000000e+01
  1.111111111111111e+00   1.000000000000000e+01
  0.000000000000000e+00   1.000000000000000e+01
 -1.111111111111111e+00   1.000000000000000e+01
 -2.222222222222223e+00   1.000000000000000e+01
 -3.333333333333335e+00   1.000000000000000e+01
 -4.444444444444445e+00   1.000000000000000e+01
 -5.555555555555557e+00   1.000000000000000e+01
 -6.666666666666668e+00   1.000000000000000e+01
 -7.777777777777779e+00   1.000000000000000e+01
 -8.888888888888889e+00   1.000000000000000e+01
 -1.000000000000000e+01   1.000000000000000e+01
 -1.000000000000000e+01   8.888888888888889e+00
 -1.000000000000000e+01   7.777777777777779e+00
 -1.000000000000000e+01   6.666666666666665e+00
 -1.000000000000000e+01   5.555555555555555e+00
 -1.000000000000000e+01   4.444444444444445e+00
 -1.000000000000000e+01   3.333333333333332e+00
 -1.000000000000000e+01   2.222222222222221e+00
 -1.000000000000000e+01   1.111111111111111e+00
 -1.000000000000000e+01   0.000000000000000e+00
 -1.000000000000000e+01  -1.111111111111111e+00
 -1.000000000000000e+01  -2.222222222222223e+00
 -1.000000000000000e+01  -3.333333333333335e+00
 -1.000000000000000e+01  -4.444444444444445e+00
 -1.000000000000000e+01  -5.555555555555557e+00
 -1.000000000000000e+01  -6.666666666666668e+00
 -1.000000000000000e+01  -7.777777777777779e+00
 -1.000000000000000e+01  -8.888888888888889e+00
 -8.888888888888886e+00  -8.888888888888889e+00
 -7.777777777777779e+00  -8.888888888888889e+00
 -6.666666666666664e+00  -8.888888888888889e+00
 -5.555555555555556e+00  -8.888888888888889e+00
 -4.444444444444443e+00  -8.888888888888889e+00
 -3.333333333333332e+00  -8.888888888888889e+00
 -2.222222222222221e+00  -8.888888888888889e+00
 -1.111111111111110e+00  -8.888888888888889e+00
  0.000000000000000e+00  -8.888888888888889e+00
  1.111111111111110e+00  -8.888888888888889e+00
  2.222222222222222e+00  -8.888888888888889e+00
  3.333333333333335e+00  -8.888888888888889e+00
  4.444444444444445e+00  -8.888888888888889e+00
  5.555555555555558e+00  -8.888888888888889e+00
  6.666666666666670e+00  -8.888888888888889e+00
  7.777777777777779e+00  -8.888888888888889e+00
  8.888888888888886e+00  -8.888888888888889e+00
 -8.888888888888893e+00  -7.777777777777779e+00
 -7.777777777777780e+00  -7.777777777777779e+00
 -6.666666666666664e+00  -7.777777777777779e+00
 -5.555555555555554e+00  -7.777777777777779e+00
 -4.444444444444446e+00  -7.777777777777779e+00
 -3.333333333333332e+00  -7.777777777777779e+00
 -2.222222222222222e+00  -7.777777777777779e+00
 -1.111111111111111e+00  -7.777777777777779e+00
  0.000000000000000e+00  -7.777777777777779e+00
  1.111111111111111e+00  -7.777777777777779e+00
  2.222222222222223e+00  -7.777777777777779e+00
  3.333333333333336e+00  -7.777777777777779e+00
  4.444444444444445e+00  -7.777777777777779e+00
  5.555555555555555e+00  -7.777777777777779e+00
  6.666666666666668e+00  -7.777777777777779e+00
  7.777777777777780e+00  -7.777777777777779e+00
  8.888888888888893e+00  -7.777777777777779e+00
 -8.888888888888889e+00  -6.666666666666668e+00
 -7.777777777777779e+00  -6.666666666666668e+00
 -6.666666666666665e+00  -6.666666666666668e+00
 -5.555555555555555e+00  -6.666666666666666e+00
 -4.444444444444445e+00  -6.666666666666666e+00
 -3.333333333333331e+00  -6.666666666666666e+00
 -2.222222222222221e+00  -6.666666666666667e+00
 -1.111111111111111e+00  -6.666666666666667e+00
  0.000000000000000e+00  -6.666666666666667e+00
  1.111111111111111e+00  -6.666666666666667e+00
  2.222222222222223e+00  -6.666666666666667e+00
  3.333333333333334e+00  -6.666666666666665e+00
  4.444444444444445e+00  -6.666666666666663e+00
  5.555555555555555e+00  -6.666666666666665e+00
  6.666666666666668e+00  -6.666666666666665e+00
  7.777777777777779e+00  -6.666666666666664e+00
  8.888888888888889e+00  -6.666666666666666e+00
 -8.888888888888889e+00  -5.555555555555557e+00
 -7.777777777777778e+00  -5.555555555555557e+00
 -6.666666666666665e+00  -5.555555555555559e+00
 -5.555555555555555e+00  -5.555555555555559e+00
 -4.444444444444445e+00  -5.555555555555557e+00
 -3.333333333333333e+00  -5.555555555555559e+00
 -2.222222222222222e+00  -5.555555555555557e+00
 -1.111111111111111e+00  -5.555555555555557e+00
  0.000000000000000e+00  -5.555555555555555e+00
  1.111111111111111e+00  -5.555555555555555e+00
  2.222222222222222e+00  -5.555555555555555e+00
  3.333333333333335e+00  -5.555555555555555e+00
  4.444444444444445e+00  -5.555555555555555e+00
  5.555555555555557e+00  -5.555555555555555e+00
  6.666666666666666e+00  -5.555555555555555e+00
  7.777777777777778e+00  -5.555555555555555e+00
  8.888888888888889e+00  -5.555555555555555e+00
 -8.888888888888889e+00  -4.444444444444445e+00
 -7.777777777777779e+00  -4.444444444444445e+00
 -6.666666666666667e+00  -4.444444444444445e+00
 -5.555555555555557e+00  -4.444444444444445e+00
 -4.444444444444445e+00  -4.444444444444445e+00
 -3.333333333333333e+00  -4.444444444444445e+00
 -2.222222222222222e+00  -4.444444444444445e+00
 -1.111111111111111e+00  -4.444444444444445e+00
  0.000000000000000e+00  -4.444444444444445e+00
  1.111111111111111e+00  -4.444444444444445e+00
  2.222222222222223e+00  -4.444444444444445e+00
  3.333333333333334e+00  -4.444444444444445e+00
  4.444444444444445e+00  -4.444444444444445e+00
  5.555555555555557e+00  -4.444444444444445e+00
  6.666666666666668e+00  -4.444444444444445e+00
  7.777777777777779e+00  -4.444444444444445e+00
  8.888888888888889e+00  -4.444444444444445e+00
 -8.888888888888889e+00  -3.333333333333336e+00
 -7.777777777777779e+00  -3.333333333333336e+00
 -6.666666666666667e+00  -3.333333333333334e+00
 -5.555555555555557e+00  -3.333333333333336e+00
 -4.444444444444445e+00  -3.333333333333334e+00
 -3.333333333333333e+00  -3.333333333333334e+00
 -2.222222222222222e+00  -3.333333333333334e+00
 -1.111111111111111e+00  -3.333333333333334e+00
  0.000000000000000e+00  -3.333333333333334e+00
  1.111111111111111e+00  -3.333333333333334e+00
  2.222222222222222e+00  -3.333333333333334e+00
  3.333333333333335e+00  -3.333333333333334e+00
  4.444444444444445e+00  -3.333333333333334e+00
  5.555555555555557e+00  -3.333333333333334e+00
  6.666666666666668e+00  -3.333333333333333e+00
  7.777777777777778e+00  -3.333333333333332e+00
  8.888888888888889e+00  -3.333333333333333e+00
 -8.888888888888889e+00  -2.222222222222224e+00
 -7.777777777777779e+00  -2.222222222222224e+00
 -6.666666666666667e+00  -2.222222222222222e+00
 -5.555555555555555e+00  -2.222222222222222e+00
 -4.444444444444445e+00  -2.222222222222222e+00
 -3.333333333333334e+00  -2.222222222222222e+00
 -2.222222222222222e+00  -2.222222222222222e+00
 -1.111111111111111e+00  -2.222222222222222e+00
  0.000000000000000e+00  -2.222222222222222e+00
  1.111111111111111e+00  -2.222222222222222e+00
  2.222222222222222e+00  -2.222222222222222e+00
  3.333333333333334e+00  -2.222222222222222e+00
  4.444444444444445e+00  -2.222222222222222e+00
  5.555555555555555e+00  -2.222222222222221e+00
  6.666666666666668e+00  -2.222222222222221e+00
  7.777777777777779e+00  -2.222222222222221e+00
  8.888888888888889e+00  -2.222222222222221e+00
 -8.888888888888889e+00  -1.111111111111111e+00
 -7.777777777777779e+00  -1.111111111111111e+00
 -6.666666666666667e+00  -1.111111111111111e+00
 -5.555555555555555e+00  -1.111111111111111e+00
 -4.444444444444445e+00  -1.111111111111111e+00
 -3.333333333333334e+00  -1.111111111111111e+00
 -2.222222222222223e+00  -1.111111111111111e+00
 -1.111111111111111e+00  -1.111111111111111e+00
  0.000000000000000e+00  -1.111111111111111e+00
  1.111111111111111e+00  -1.111111111111111e+00
  2.222222222222222e+00  -1.111111111111111e+00
  3.333333333333334e+00  -1.111111111111111e+00
  4.444444444444445e+00  -1.111111111111111e+00
  5.555555555555557e+00  -1.111111111111111e+00
  6.666666666666666e+00  -1.111111111111111e+00
  7.777777777777779e+00  -1.111111111111111e+00
  8.888888888888889e+00  -1.111111111111111e+00
 -8.888888888888889e+00   0.000000000000000e+00
 -7.777777777777779e+00   0.000000000000000e+00
 -6.666666666666667e+00   0.000000000000000e+00
 -5.555555555555555e+00   0.000000000000000e+00
 -4.444444444444445e+00   0.000000000000000e+00
 -3.333333333333334e+00   0.000000000000000e+00
 -2.222222222222222e+00   0.000000000000000e+00
 -1.111111111111111e+00   0.000000000000000e+00
  0.000000000000000e+00   0.000000000000000e+00
  1.111111111111111e+00   0.000000000000000e+00
  2.222222222222222e+00   0.000000000000000e+00
  3.333333333333333e+00   0.000000000000000e+00
  4.444444444444445e+00   0.000000000000000e+00
  5.555555555555557e+00   0.000000000000000e+00
  6.666666666666666e+00   0.000000000000000e+00
  7.777777777777779e+00   0.000000000000000e+00
  8.888888888888889e+00   0.000000000000000e+00
 -8.888888888888889e+00   1.111111111111111e+00
 -7.777777777777779e+00   1.111111111111111e+00
 -6.666666666666667e+00   1.111111111111111e+00
 -5.555555555555557e+00   1.111111111111111e+00
 -4.444444444444445e+00   1.111111111111111e+00
 -3.333333333333334e+00   1.111111111111111e+00
 -2.222222222222222e+00   1.111111111111111e+00
 -1.111111111111111e+00   1.111111111111111e+00
  0.000000000000000e+00   1.111111111111111e+00
  1.111111111111111e+00   1.111111111111111e+00
  2.222222222222222e+00   1.111111111111111e+00
  3.333333333333333e+00   1.111111111111111e+00
  4.444444444444445e+00   1.111111111111111e+00
  5.555555555555555e+00   1.111111111111111e+00
  6.666666666666666e+00   1.111111111111111e+00
  7.777777777777779e+00   1.111111111111111e+00
  8.888888888888889e+00   1.111111111111111e+00
 -8.888888888888889e+00   2.222222222222221e+00
 -7.777777777777779e+00   2.222222222222221e+00
 -6.666666666666667e+00   2.222222222222221e+00
 -5.555555555555557e+00   2.222222222222221e+00
 -4.444444444444445e+00   2.222222222222221e+00
 -3.333333333333335e+00   2.222222222222222e+00
 -2.222222222222223e+00   2.222222222222222e+00
 -1.111111111111111e+00   2.222222222222222e+00
  0.000000000000000e+00   2.222222222222222e+00
  1.111111111111111e+00   2.222222222222222e+00
  2.222222222222222e+00   2.222222222222222e+00
  3.333333333333333e+00   2.222222222222223e+00
  4.444444444444445e+00   2.222222222222223e+00
  5.555555555555555e+00   2.222222222222223e+00
  6.666666666666664e+00   2.222222222222223e+00
  7.777777777777779e+00   2.222222222222223e+00
  8.888888888888889e+00   2.222222222222223e+00
 -8.888888888888889e+00   3.333333333333332e+00
 -7.777777777777779e+00   3.333333333333332e+00
 -6.666666666666666e+00   3.333333333333332e+00
 -5.555555555555557e+00   3.333333333333332e+00
 -4.444444444444445e+00   3.333333333333333e+00
 -3.333333333333335e+00   3.333333333333333e+00
 -2.222222222222223e+00   3.333333333333333e+00
 -1.111111111111111e+00   3.333333333333334e+00
  0.000000000000000e+00   3.333333333333334e+00
  1.111111111111111e+00   3.333333333333334e+00
  2.222222222222222e+00   3.333333333333334e+00
  3.333333333333333e+00   3.333333333333334e+00
  4.444444444444445e+00   3.333333333333334e+00
  5.555555555555555e+00   3.333333333333335e+00
  6.666666666666666e+00   3.333333333333335e+00
  7.777777777777779e+00   3.333333333333335e+00
  8.888888888888889e+00   3.333333333333335e+00
 -8.888888888888889e+00   4.444444444444445e+00
 -7.777777777777779e+00   4.444444444444445e+00
 -6.666666666666668e+00   4.444444444444445e+00
 -5.555555555555555e+00   4.444444444444445e+00
 -4.444444444444445e+00   4.444444444444445e+00
 -3.333333333333335e+00   4.444444444444445e+00
 -2.222222222222223e+00   4.444444444444445e+00
 -1.111111111111111e+00   4.444444444444445e+00
  0.000000000000000e+00   4.444444444444445e+00
  1.111111111111111e+00   4.444444444444445e+00
  2.222222222222221e+00   4.444444444444445e+00
  3.333333333333333e+00   4.444444444444445e+00
  4.444444444444445e+00   4.444444444444445e+00
  5.555555555555555e+00   4.444444444444445e+00
  6.666666666666664e+00   4.444444444444445e+00
  7.777777777777779e+00   4.444444444444445e+00
  8.888888888888889e+00   4.444444444444445e+00
 -8.888888888888889e+00   5.555555555555555e+00
 -7.777777777777779e+00   5.555555555555555e+00
 -6.666666666666668e+00   5.555555555555555e+00
 -5.555555555555557e+00   5.555555555555555e+00
 -4.444444444444445e+00   5.555555555555555e+00
 -3.333333333333335e+00   5.555555555555555e+00
 -2.222222222222223e+00   5.555555555555555e+00
 -1.111111111111111e+00   5.555555555555555e+00
  0.000000000000000e+00   5.555555555555557e+00
  1.111111111111111e+00   5.555555555555557e+00
  2.222222222222221e+00   5.555555555555557e+00
  3.333333333333332e+00   5.555555555555557e+00
  4.444444444444445e+00   5.555555555555557e+00
  5.555555555555555e+00   5.555555555555557e+00
  6.666666666666666e+00   5.555555555555557e+00
  7.777777777777779e+00   5.555555555555557e+00
  8.888888888888889e+00   5.555555555555557e+00
 -8.888888888888889e+00   6.666666666666666e+00
 -7.777777777777779e+00   6.666666666666666e+00
 -6.666666666666668e+00   6.666666666666666e+00
 -5.555555555555557e+00   6.666666666666666e+00
 -4.444444444444445e+00   6.666666666666666e+00
 -3.333333333333334e+00   6.666666666666666e+00
 -2.222222222222223e+00   6.666666666666666e+00
 -1.111111111111111e+00   6.666666666666666e+00
  0.000000000000000e+00   6.666666666666666e+00
  1.111111111111111e+00   6.666666666666668e+00
  2.222222222222221e+00   6.666666666666668e+00
  3.333333333333332e+00   6.666666666666666e+00
  4.444444444444445e+00   6.666666666666668e+00
  5.555555555555555e+00   6.666666666666667e+00
  6.666666666666666e+00   6.666666666666669e+00
  7.777777777777779e+00   6.666666666666669e+00
  8.888888888888889e+00   6.666666666666667e+00
 -8.888888888888889e+00   7.777777777777779e+00
 -7.777777777777779e+00   7.777777777777779e+00
 -6.666666666666668e+00   7.777777777777779e+00
 -5.555555555555557e+00   7.777777777777779e+00
 -4.444444444444445e+00   7.777777777777779e+00
 -3.333333333333334e+00   7.777777777777779e+00
 -2.222222222222223e+00   7.777777777777779e+00
 -1.111111111111111e+00   7.777777777777779e+00
  0.000000000000000e+00   7.777777777777779e+00
  1.111111111111111e+00   7.777777777777779e+00
  2.222222222222221e+00   7.777777777777779e+00
  3.333333333333332e+00   7.777777777777779e+00
  4.444444444444445e+00   7.777777777777779e+00
  5.555555555555555e+00   7.777777777777779e+00
  6.666666666666664e+00   7.777777777777779e+00
  7.777777777777779e+00   7.777777777777779e+00
  8.888888888888889e+00   7.777777777777779e+00
 -8.888888888888889e+00   8.888888888888889e+00
 -7.777777777777779e+00   8.888888888888889e+00
 -6.666666666666668e+00   8.888888888888889e+00
 -5.555555555555557e+00   8.888888888888889e+00
 -4.444444444444445e+00   8.888888888888889e+00
 -3.333333333333334e+00   8.888888888888889e+00
 -2.222222222222223e+00   8.888888888888889e+00
 -1.111111111111111e+00   8.888888888888889e+00
  0.000000000000000e+00   8.888888888888889e+00
  1.111111111111111e+00   8.888888888888889e+00
  2.222222222222221e+00   8.888888888888889e+00
  3.333333333333332e+00   8.888888888888889e+00
  4.444444444444445e+00   8.888888888888889e+00
  5.555555555555555e+00   8.888888888888889e+00
  6.666666666666666e+00   8.888888888888889e+00
  7.777777777777779e+00   8.888888888888889e+00
  8.888888888888889e+00   8.888888888888889e+00
2 72 1 1 -1
2 1 2 2 -4
2 2 3 4 -4
2 3 4 6 -4
2 4 5 8 -4
2 5 6 10 -4
2 6 7 12 -4
2 7 8 14 -4
2 8 9 16 -4
2 9 10 18 -4
2 10 11 20 -4
2 11 12 22 -4
2 12 13 24 -4
2 13 14 26 -4
2 14 15 28 -4
2 15 16 30 -4
2 16 17 32 -4
2 17 18 34 -4
2 18 19 36 -4
2 19 20 36 -2
2 71 72 37 -1
2 20 21 72 -2
2 70 71 73 -1
2 21 22 108 -2
2 69 70 109 -1
2 22 23 144 -2
2 68 69 145 -1
2 23 24 180 -2
2 67 68 181 -1
2 24 25 216 -2
2 66 67 217 -1
2 25 26 252 -2
2 65 66 253 -1
2 26 27 288 -2
2 64 65 289 -1
2 27 28 324 -2
2 63 64 325 -1
2 28 29 360 -2
2 62 63 361 -1
2 29 30 396 -2
2 61 62 397 -1
2 30 31 432 -2
2 60 61 433 -1
2 31 32 468 -2
2 59 60 469 -1
2 32 33 504 -2
2 58 59 505 -1
2 33 34 540 -2
2 57 58 541 -1
2 34 35 576 -2
2 56 57 577 -1
2 35 36 612 -2
2 54 55 613 -3
2 55 56 613 -1
2 53 54 615 -3
2 52 53 617 -3
2 51 52 619 -3
2 50 51 621 -3
2 49 50 623 -3
2 48 49 625 -3
2 47 48 627 -3
2 46 47 629 -3
2 45 46 631 -3
2 44 45 633 -3
2 43 44 635 -3
2 42 43 637 -3
2 41 42 639 -3
2 40 41 641 -3
2 39 40 643 -3
2 38 39 645 -3
2 37 38 647 -3
2 36 37 648 -2
2 1 73 1 2
2 2 73 2 3
2 2 74 3 4
2 3 74 4 5
2 3 75 5 6
2 4 75 6 7
2 4 76 7 8
2 5 76 8 9
2 5 77 9 10
2 6 77 10 11
2 6 78 11 12
2 7 78 12 13
2 7 79 13 14
2 8 79 14 15
2 8 80 15 16
2 9 80 16 17
2 9 81 17 18
2 10 81 18 19
2 10 82 19 20
2 11 82 20 21
2 11 83 21 22
2 12 83 22 23
2 12 84 23 24
2 13 84 24 25
2 13 85 25 26
2 14 85 26 27
2 14 86 27 28
2 15 86 28 29
2 15 87 29 30
2 16 87 30 31
2 16 88 31 32
2 17 88 32 33
2 17 89 33 34
2 18 89 34 35
2 18 20 35 36
2 73 72 1 38
2 72 90 37 38
2 73 90 38 39
2 74 73 3 40
2 73 91 39 40
2 74 91 40 41
2 75 74 5 42
2 74 92 41 42
2 75 92 42 43
2 76 75 7 44
2 75 93 43 44
2 76 93 44 45
2 77 76 9 46
2 76 94 45 46
2 77 94 46 47
2 78 77 11 48
2 77 95 47 48
2 78 95 48 49
2 79 78 13 50
2 78 96 49 50
2 79 96 50 51
2 80 79 15 52
2 79 97 51 52
2 80 97 52 53
2 81 80 17 54
2 80 98 53 54
2 81 98 54 55
2 82 81 19 56
2 81 99 55 56
2 82 99 56 57
2 83 82 21 58
2 82 100 57 58
2 83 100 58 59
2 84 83 23 60
2 83 101 59 60
2 84 101 60 61
2 85 84 25 62
2 84 102 61 62
2 85 102 62 63
2 86 85 27 64
2 85 103 63 64
2 86 103 64 65
2 87 86 29 66
2 86 104 65 66
2 87 104 66 67
2 88 87 31 68
2 87 105 67 68
2 88 105 68 69
2 89 88 33 70
2 88 106 69 70
2 89 106 70 71
2 20 89 35 72
2 89 21 71 72
2 90 71 37 74
2 71 107 73 74
2 90 107 74 75
2 91 90 39 76
2 90 108 75 76
2 91 108 76 77
2 92 91 41 78
2 91 109 77 78
2 92 109 78 79
2 93 92 43 80
2 92 110 79 80
2 93 110 80 81
2 94 93 45 82
2 93 111 81 82
2 94 111 82 83
2 95 94 47 84
2 94 112 83 84
2 95 112 84 85
2 96 95 49 86
2 95 113 85 86
2 96 113 86 87
2 97 96 51 88
2 96 114 87 88
2 97 114 88 89
2 98 97 53 90
2 97 115 89 90
2 98 115 90 91
2 99 98 55 92
2 98 116 91 92
2 99 116 92 93
2 100 99 57 94
2 99 117 93 94
2 100 117 94 95
2 101 100 59 96
2 100 118 95 96
2 101 118 96 97
2 102 101 61 98
2 101 119 97 98
2 102 119 98 99
2 103 102 63 100
2 102 120 99 100
2 103 120 100 101
2 104 103 65 102
2 103 121 101 102
2 104 121 102 103
2 105 104 67 104
2 104 122 103 104
2 105 122 104 105
2 106 105 69 106
2 105 123 105 106
2 106 123 106 107
2 21 106 71 108
2 106 22 107 108
2 107 70 73 110
2 70 124 109 110
2 107 124 110 111
2 108 107 75 112
2 107 125 111 112
2 108 125 112 113
2 109 108 77 114
2 108 126 113 114
2 109 126 114 115
2 110 109 79 116
2 109 127 115 116
2 110 127 116 117
2 111 110 81 118
2 110 128 117 118
2 111 128 118 119
2 112 111 83 120
2 111 129 119 120
2 112 129 120 121
2 113 112 85 122
2 112 130 121 122
2 113 130 122 123
2 114 113 87 124
2 113 131 123 124
2 114 131 124 125
2 115 114 89 126
2 114 132 125 126
2 115 132 126 127
2 116 115 91 128
2 115 133 127 128
2 116 133 128 129
2 117 116 93 130
2 116 134 129 130
2 117 134 130 131
2 118 117 95 132
2 117 135 131 132
2 118 135 132 133
2 119 118 97 134
2 118 136 133 134
2 119 136 134 135
2 120 119 99 136
2 119 137 135 136
2 120 137 136 137
2 121 120 101 138
2 120 138 137 138
2 121 138 138 139
2 122 121 103 140
2 121 139 139 140
2 122 139 140 141
2 123 122 105 142
2 122 140 141 142
2 123 140 142 143
2 22 123 107 144
2 123 23 143 144
2 124 69 109 146
2 69 141 145 146
2 124 141 146 147
2 125 124 111 148
2 124 142 147 148
2 125 142 148 149
2 126 125 113 150
2 125 143 149 150
2 126 143 150 151
2 127 126 115 152
2 126 144 151 152
2 127 144 152 153
2 128 127 117 154
2 127 145 153 154
2 128 145 154 155
2 129 128 119 156
2 128 146 155 156
2 129 146 156 157
2 130 129 121 158
2 129 147 157 158
2 130 147 158 159
2 131 130 123 160
2 130 148 159 160
2 131 148 160 161
2 132 131 125 162
2 131 149 161 162
2 132 149 162 163
2 133 132 127 164
2 132 150 163 164
2 133 150 164 165
2 134 133 129 166
2 133 151 165 166
2 134 151 166 167
2 135 134 131 168
2 134 152 167 168
2 135 152 168 169
2 136 135 133 170
2 135 153 169 170
2 136 153 170 171
2 137 136 135 172
2 136 154 171 172
2 137 154 172 173
2 138 137 137 174
2 137 155 173 174
2 138 155 174 175
2 139 138 139 176
2 138 156 175 176
2 139 156 176 177
2 140 139 141 178
2 139 157 177 178
2 140 157 178 179
2 23 140 143 180
2 140 24 179 180
2 141 68 145 182
2 68 158 181 182
2 141 158 182 183
2 142 141 147 184
2 141 159 183 184
2 142 159 184 185
2 143 142 149 186
2 142 160 185 186
2 143 160 186 187
2 144 143 151 188
2 143 161 187 188
2 144 161 188 189
2 145 144 153 190
2 144 162 189 190
2 145 162 190 191
2 146 145 155 192
2 145 163 191 192
2 146 163 192 193
2 147 146 157 194
2 146 164 193 194
2 147 164 194 195
2 148 147 159 196
2 147 165 195 196
2 148 165 196 197
2 149 148 161 198
2 148 166 197 198
2 149 166 198 199
2 150 149 163 200
2 149 167 199 200
2 150 167 200 201
2 151 150 165 202
2 150 168 201 202
2 151 168 202 203
2 152 151 167 204
2 151 169 203 204
2 152 169 204 205
2 153 152 169 206
2 152 170 205 206
2 153 170 206 207
2 154 153 171 208
2 153 171 207 208
2 154 171 208 209
2 155 154 173 210
2 154 172 209 210
2 155 172 210 211
2 156 155 175 212
2 155 173 211 212
2 156 173 212 213
2 157 156 177 214
2 156 174 213 214
2 157 174 214 215
2 24 157 179 216
2 157 25 215 216
2 158 67 181 218
2 67 175 217 218
2 158 175 218 219
2 159 158 183 220
2 158 176 219 220
2 159 176 220 221
2 160 159 185 222
2 159 177 221 222
2 160 177 222 223
2 161 160 187 224
2 160 178 223 224
2 161 178 224 225
2 162 161 189 226
2 161 179 225 226
2 162 179 226 227
2 163 162 191 228
2 162 180 227 228
2 163 180 228 229
2 164 163 193 230
2 163 181 229 230
2 164 181 230 231
2 165 164 195 232
2 164 182 231 232
2 165 182 232 233
2 166 165 197 234
2 165 183 233 234
2 166 183 234 235
2 167 166 199 236
2 166 184 235 236
2 167 184 236 237
2 168 167 201 238
2 167 185 237 238
2 168 185 238 239
2 169 168 203 240
2 168 186 239 240
2 169 186 240 241
2 170 169 205 242
2 169 187 241 242
2 170 187 242 243
2 171 170 207 244
2 170 188 243 244
2 171 188 244 245
2 172 171 209 246
2 171 189 245 246
2 172 189 246 247
2 173 172 211 248
2 172 190 247 248
2 173 190 248 249
2 174 173 213 250
2 173 191 249 250
2 174 191 250 251
2 25 174 215 252
2 174 26 251 252
2 175 66 217 254
2 66 192 253 254
2 175 192 254 255
2 176 175 219 256
2 175 193 255 256
2 176 193 256 257
2 177 176 221 258
2 176 194 257 258
2 177 194 258 259
2 178 177 223 260
2 177 195 259 260
2 178 195 260 261
2 179 178 225 262
2 178 196 261 262
2 179 196 262 263
2 180 179 227 264
2 179 197 263 264
2 180 197 264 265
2 181 180 229 266
2 180 198 265 266
2 181 198 266 267
2 182 181 231 268
2 181 199 267 268
2 182 199 268 269
2 183 182 233 270
2 182 200 269 270
2 183 200 270 271
2 184 183 235 272
2 183 201 271 272
2 184 201 272 273
2 185 184 237 274
2 184 202 273 274
2 185 202 274 275
2 186 185 239 276
2 185 203 275 276
2 186 203 276 277
2 187 186 241 278
2 186 204 277 278
2 187 204 278 279
2 188 187 243 280
2 187 205 279 280
2 188 205 280 281
2 189 188 245 282
2 188 206 281 282
2 189 206 282 283
2 190 189 247 284
2 189 207 283 284
2 190 207 284 285
2 191 190 249 286
2 190 208 285 286
2 191 208 286 287
2 26 191 251 288
2 191 27 287 288
2 192 65 253 290
2 65 209 289 290
2 192 209 290 291
2 193 192 255 292
2 192 210 291 292
2 193 210 292 293
2 194 193 257 294
2 193 211 293 294
2 194 211 294 295
2 195 194 259 296
2 194 212 295 296
2 195 212 296 297
2 196 195 261 298
2 195 213 297 298
2 196 213 298 299
2 197 196 263 300
2 196 214 299 300
2 197 214 300 301
2 198 197 265 302
2 197 215 301 302
2 198 215 302 303
2 199 198 267 304
2 198 216 303 304
2 199 216 304 305
2 200 199 269 306
2 199 217 305 306
2 200 217 306 307
2 201 200 271 308
2 200 218 307 308
2 201 218 308 309
2 202 201 273 310
2 201 219 309 310
2 202 219 310 311
2 203 202 275 312
2 202 220 311 312
2 203 220 312 313
2 204 203 277 314
2 203 221 313 314
2 204 221 314 315
2 205 204 279 316
2 204 222 315 316
2 205 222 316 317
2 206 205 281 318
2 205 223 317 318
2 206 223 318 319
2 207 206 283 320
2 206 224 319 320
2 207 224 320 321
2 208 207 285 322
2 207 225 321 322
2 208 225 322 323
2 27 208 287 324
2 208 28 323 324
2 209 64 289 326
2 64 226 325 326
2 209 226 326 327
2 210 209 291 328
2 209 227 327 328
2 210 227 328 329
2 211 210 293 330
2 210 228 329 330
2 211 228 330 331
2 212 211 295 332
2 211 229 331 332
2 212 229 332 333
2 213 212 297 334
2 212 230 333 334
2 213 230 334 335
2 214 213 299 336
2 213 231 335 336
2 214 231 336 337
2 215 214 301 338
2 214 232 337 338
2 215 232 338 339
2 216 215 303 340
2 215 233 339 340
2 216 233 340 341
2 217 216 305 342
2 216 234 341 342
2 217 234 342 343
2 218 217 307 344
2 217 235 343 344
2 218 235 344 345
2 219 218 309 346
2 218 236 345 346
2 219 236 346 347
2 220 219 311 348
2 219 237 347 348
2 220 237 348 349
2 221 220 313 350
2 220 238 349 350
2 221 238 350 351
2 222 221 315 352
2 221 239 351 352
2 222 239 352 353
2 223 222 317 354
2 222 240 353 354
2 223 240 354 355
2 224 223 319 356
2 223 241 355 356
2 224 241 356 357
2 225 224 321 358
2 224 242 357 358
2 225 242 358 359
2 28 225 323 360
2 225 29 359 360
2 226 63 325 362
2 63 243 361 362
2 226 243 362 363
2 227 226 327 364
2 226 244 363 364
2 227 244 364 365
2 228 227 329 366
2 227 245 365 366
2 228 245 366 367
2 229 228 331 368
2 228 246 367 368
2 229 246 368 369
2 230 229 333 370
2 229 247 369 370
2 230 247 370 371
2 231 230 335 372
2 230 248 371 372
2 231 248 372 373
2 232 231 337 374
2 231 249 373 374
2 232 249 374 375
2 233 232 339 376
2 232 250 375 376
2 233 250 376 377
2 234 233 341 378
2 233 251 377 378
2 234 251 378 379
2 235 234 343 380
2 234 252 379 380
2 235 252 380 381
2 236 235 345 382
2 235 253 381 382
2 236 253 382 383
2 237 236 347 384
2 236 254 383 384
2 237 254 384 385
2 238 237 349 386
2 237 255 385 386
2 238 255 386 387
2 239 238 351 388
2 238 256 387 388
2 239 256 388 389
2 240 239 353 390
2 239 257 389 390
2 240 257 390 391
2 241 240 355 392
2 240 258 391 392
2 241 258 392 393
2 242 241 357 394
2 241 259 393 394
2 242 259 394 395
2 29 242 359 396
2 242 30 395 396
2 243 62 361 398
2 62 260 397 398
2 243 260 398 399
2 244 243 363 400
2 243 261 399 400
2 244 261 400 401
2 245 244 365 402
2 244 262 401 402
2 245 262 402 403
2 246 245 367 404
2 245 263 403 404
2 246 263 404 405
2 247 246 369 406
2 246 264 405 406
2 247 264 406 407
2 248 247 371 408
2 247 265 407 408
2 248 265 408 409
2 249 248 373 410
2 248 266 409 410
2 249 266 410 411
2 250 249 375 412
2 249 267 411 412
2 250 267 412 413
2 251 250 377 414
2 250 268 413 414
2 251 268 414 415
2 252 251 379 416
2 251 269 415 416
2 252 269 416 417
2 253 252 381 418
2 252 270 417 418
2 253 270 418 419
2 254 253 383 420
2 253 271 419 420
2 254 271 420 421
2 255 254 385 422
2 254 272 421 422
2 255 272 422 423
2 256 255 387 424
2 255 273 423 424
2 256 273 424 425
2 257 256 389 426
2 256 274 425 426
2 257 274 426 427
2 258 257 391 428
2 257 275 427 428
2 258 275 428 429
2 259 258 393 430
2 258 276 429 430
2 259 276 430 431
2 30 259 395 432
2 259 31 431 432
2 260 61 397 434
2 61 277 433 434
2 260 277 434 435
2 261 260 399 436
2 260 278 435 436
2 261 278 436 437
2 262 261 401 438
2 261 279 437 438
2 262 279 438 439
2 263 262 403 440
2 262 280 439 440
2 263 280 440 441
2 264 263 405 442
2 263 281 441 442
2 264 281 442 443
2 265 264 407 444
2 264 282 443 444
2 265 282 444 445
2 266 265 409 446
2 265 283 445 446
2 266 283 446 447
2 267 266 411 448
2 266 284 447 448
2 267 284 448 449
2 268 267 413 450
2 267 285 449 450
2 268 285 450 451
2 269 268 415 452
2 268 286 451 452
2 269 286 452 453
2 270 269 417 454
2 269 287 453 454
2 270 287 454 455
2 271 270 419 456
2 270 288 455 456
2 271 288 456 457
2 272 271 421 458
2 271 289 457 458
2 272 289 458 459
2 273 272 423 460
2 272 290 459 460
2 273 290 460 461
2 274 273 425 462
2 273 291 461 462
2 274 291 462 463
2 275 274 427 464
2 274 292 463 464
2 275 292 464 465
2 276 275 429 466
2 275 293 465 466
2 276 293 466 467
2 31 276 431 468
2 276 32 467 468
2 277 60 433 470
2 60 294 469 470
2 277 294 470 471
2 278 277 435 472
2 277 295 471 472
2 278 295 472 473
2 279 278 437 474
2 278 296 473 474
2 279 296 474 475
2 280 279 439 476
2 279 297 475 476
2 280 297 476 477
2 281 280 441 478
2 280 298 477 478
2 281 298 478 479
2 282 281 443 480
2 281 299 479 480
2 282 299 480 481
2 283 282 445 482
2 282 300 481 482
2 283 300 482 483
2 284 283 447 484
2 283 301 483 484
2 284 301 484 485
2 285 284 449 486
2 284 302 485 486
2 285 302 486 487
2 286 285 451 488
2 285 303 487 488
2 286 303 488 489
2 287 286 453 490
2 286 304 489 490
2 287 304 490 491
2 288 287 455 492
2 287 305 491 492
2 288 305 492 493
2 289 288 457 494
2 288 306 493 494
2 289 306 494 495
2 290 289 459 496
2 289 307 495 496
2 290 307 496 497
2 291 290 461 498
2 290 308 497 498
2 291 308 498 499
2 292 291 463 500
2 291 309 499 500
2 292 309 500 501
2 293 292 465 502
2 292 310 501 502
2 293 310 502 503
2 32 293 467 504
2 293 33 503 504
2 294 59 469 506
2 59 311 505 506
2 294 311 506 507
2 295 294 471 508
2 294 312 507 508
2 295 312 508 509
2 296 295 473 510
2 295 313 509 510
2 296 313 510 511
2 297 296 475 512
2 296 314 511 512
2 297 314 512 513
2 298 297 477 514
2 297 315 513 514
2 298 315 514 515
2 299 298 479 516
2 298 316 515 516
2 299 316 516 517
2 300 299 481 518
2 299 317 517 518
2 300 317 518 519
2 301 300 483 520
2 300 318 519 520
2 301 318 520 521
2 302 301 485 522
2 301 319 521 522
2 302 319 522 523
2 303 302 487 524
2 302 320 523 524
2 303 320 524 525
2 304 303 489 526
2 303 321 525 526
2 304 321 526 527
2 305 304 491 528
2 304 322 527 528
2 305 322 528 529
2 306 305 493 530
2 305 323 529 530
2 306 323 530 531
2 307 306 495 532
2 306 324 531 532
2 307 324 532 533
2 308 307 497 534
2 307 325 533 534
2 308 325 534 535
2 309 308 499 536
2 308 326 535 536
2 309 326 536 537
2 310 309 501 538
2 309 327 537 538
2 310 327 538 539
2 33 310 503 540
2 310 34 539 540
2 311 58 505 542
2 58 328 541 542
2 311 328 542 543
2 312 311 507 544
2 311 329 543 544
2 312 329 544 545
2 313 312 509 546
2 312 330 545 546
2 313 330 546 547
2 314 313 511 548
2 313 331 547 548
2 314 331 548 549
2 315 314 513 550
2 314 332 549 550
2 315 332 550 551
2 316 315 515 552
2 315 333 551 552
2 316 333 552 553
2 317 316 517 554
2 316 334 553 554
2 317 334 554 555
2 318 317 519 556
2 317 335 555 556
2 318 335 556 557
2 319 318 521 558
2 318 336 557 558
2 319 336 558 559
2 320 319 523 560
2 319 337 559 560
2 320 337 560 561
2 321 320 525 562
2 320 338 561 562
2 321 338 562 563
2 322 321 527 564
2 321 339 563 564
2 322 339 564 565
2 323 322 529 566
2 322 340 565 566
2 323 340 566 567
2 324 323 531 568
2 323 341 567 568
2 324 341 568 569
2 325 324 533 570
2 324 342 569 570
2 325 342 570 571
2 326 325 535 572
2 325 343 571 572
2 326 343 572 573
2 327 326 537 574
2 326 344 573 574
2 327 344 574 575
2 34 327 539 576
2 327 35 575 576
2 328 57 541 578
2 57 345 577 578
2 328 345 578 579
2 329 328 543 580
2 328 346 579 580
2 329 346 580 581
2 330 329 545 582
2 329 347 581 582
2 330 347 582 583
2 331 330 547 584
2 330 348 583 584
2 331 348 584 585
2 332 331 549 586
2 331 349 585 586
2 332 349 586 587
2 333 332 551 588
2 332 350 587 588
2 333 350 588 589
2 334 333 553 590
2 333 351 589 590
2 334 351 590 591
2 335 334 555 592
2 334 352 591 592
2 335 352 592 593
2 336 335 557 594
2 335 353 593 594
2 336 353 594 595
2 337 336 559 596
2 336 354 595 596
2 337 354 596 597
2 338 337 561 598
2 337 355 597 598
2 338 355 598 599
2 339 338 563 600
2 338 356 599 600
2 339 356 600 601
2 340 339 565 602
2 339 357 601 602
2 340 357 602 603
2 341 340 567 604
2 340 358 603 604
2 341 358 604 605
2 342 341 569 606
2 341 359 605 606
2 342 359 606 607
2 343 342 571 608
2 342 360 607 608
2 343 360 608 609
2 344 343 573 610
2 343 361 609 610
2 344 361 610 611
2 35 344 575 612
2 344 36 611 612
2 345 56 577 614
2 56 54 613 614
2 345 54 614 615
2 346 345 579 616
2 345 53 615 616
2 346 53 616 617
2 347 346 581 618
2 346 52 617 618
2 347 52 618 619
2 348 347 583 620
2 347 51 619 620
2 348 51 620 621
2 349 348 585 622
2 348 50 621 622
2 349 50 622 623
2 350 349 587 624
2 349 49 623 624
2 350 49 624 625
2 351 350 589 626
2 350 48 625 626
2 351 48 626 627
2 352 351 591 628
2 351 47 627 628
2 352 47 628 629
2 353 352 593 630
2 352 46 629 630
2 353 46 630 631
2 354 353 595 632
2 353 45 631 632
2 354 45 632 633
2 355 354 597 634
2 354 44 633 634
2 355 44 634 635
2 356 355 599 636
2 355 43 635 636
2 356 43 636 637
2 357 356 601 638
2 356 42 637 638
2 357 42 638 639
2 358 357 603 640
2 357 41 639 640
2 358 41 640 641
2 359 358 605 642
2 358 40 641 642
2 359 40 642 643
2 360 359 607 644
2 359 39 643 644
2 360 39 644 645
2 361 360 609 646
2 360 38 645 646
2 361 38 646 647
2 36 361 611 648
2 361 37 647 648
