1 1 2
41 41 40 1 2
-2.000000000000000e+00
-1.900000000000000e+00
-1.800000000000000e+00
-1.700000000000000e+00
-1.600000000000000e+00
-1.500000000000000e+00
-1.400000000000000e+00
-1.300000000000000e+00
-1.200000000000000e+00
-1.100000000000000e+00
-1.000000000000000e+00
-8.999999999999999e-01
-8.000000000000000e-01
-7.000000000000000e-01
-6.000000000000001e-01
-5.000000000000000e-01
-3.999999999999999e-01
-3.000000000000000e-01
-2.000000000000000e-01
-1.000000000000001e-01
 0.000000000000000e+00
 1.000000000000001e-01
 2.000000000000002e-01
 2.999999999999998e-01
 3.999999999999999e-01
 5.000000000000000e-01
 6.000000000000001e-01
 7.000000000000002e-01
 7.999999999999998e-01
 8.999999999999999e-01
 1.000000000000000e+00
 1.100000000000000e+00
 1.200000000000000e+00
 1.300000000000000e+00
 1.400000000000000e+00
 1.500000000000000e+00
 1.600000000000000e+00
 1.700000000000000e+00
 1.800000000000000e+00
 1.900000000000000e+00
 2.000000000000000e+00
1 1 1 -1
1 2 1 2
1 3 2 3
1 4 3 4
1 5 4 5
1 6 5 6
1 7 6 7
1 8 7 8
1 9 8 9
1 10 9 10
1 11 10 11
1 12 11 12
1 13 12 13
1 14 13 14
1 15 14 15
1 16 15 16
1 17 16 17
1 18 17 18
1 19 18 19
1 20 19 20
1 21 20 21
1 22 21 22
1 23 22 23
1 24 23 24
1 25 24 25
1 26 25 26
1 27 26 27
1 28 27 28
1 29 28 29
1 30 29 30
1 31 30 31
1 32 31 32
1 33 32 33
1 34 33 34
1 35 34 35
1 36 35 36
1 37 36 37
1 38 37 38
1 39 38 39
1 40 39 40
1 41 40 -2
