2   1  4                                                                   
9 16 8 2 3                                                                 
 -1.000000000000000e+00  -1.000000000000000e+00
 -1.000000000000000e+00   1.000000000000000e+00
  1.000000000000000e+00   1.000000000000000e+00
  1.000000000000000e+00  -1.000000000000000e+00
 -1.000000000000000e+00   0.000000000000000e+00
  0.000000000000000e+00   1.000000000000000e+00
  1.000000000000000e+00   0.000000000000000e+00
  0.000000000000000e+00  -1.000000000000000e+00
  0.000000000000000e+00   0.000000000000000e+00
2 1 5 2 -1
2 8 1 2 -4
2 5 2 5 -1
2 2 6 5 -3
2 6 3 3 -3
2 3 7 3 -2
2 7 4 4 -2
2 4 8 4 -4
2 6 5 5 7
2 5 8 2 6
2 9 5 7 6
2 7 6 3 1
2 9 6 1 7
2 7 8 8 4
2 7 9 1 8
2 8 9 8 6
